{
  "login": [
    {
      "code": 1,
      "msg": "后端正常",
      "data": {
        "userinfo": {
          "id": 1,
          "username": "zc"
        },
        "token": "1ed12r23r23r23r23r232r34"
      }
    }
  ],
  "user": [
    {
      "id": 1,
      "code": 1,
      "msg": "后端正常",
      "data": [
        {
          "userId": 1,
          "username": null,
          "password": "c4814e54a84bf3c46fb49fee7eee770a",
          "tel": "13759498504",
          "realName": "",
          "age": null,
          "sex": "3",
          "idCard": null,
          "bankCard": null,
          "address": null,
          "weixin": null,
          "openid": null,
          "logins": 0,
          "alipay": null,
          "status": 0,
          "type": 2,
          "level": 1,
          "roleId": 1
        }
      ]
    }
  ],
  "log": {
    "code": 0,
    "msg": "后台正常",
    "data": {
      "page": {
        "pageNum": 1,
        "pageSize": 10,
        "size": 10,
        "orderBy": "log_addtime asc",
        "startRow": 1,
        "endRow": 10,
        "total": 62,
        "pages": 7,
        "list": [
          {
            "logId": 1,
            "logAddtime": 1494138070000,
            "actionkey": "PUT",
            "logContent": "13759498504于Sun May 07 14:21:10 CST 2017操作了方法",
            "controllerkey": "/authority",
            "userId": 1,
            "logIp": "10.1.180.145",
            "params": null
          },
          {
            "logId": 2,
            "logAddtime": 1494138098000,
            "actionkey": "PUT",
            "logContent": "13759498504于Sun May 07 14:21:38 CST 2017操作了方法",
            "controllerkey": "/authority",
            "userId": 1,
            "logIp": "10.1.180.145",
            "params": null
          },
          {
            "logId": 3,
            "logAddtime": 1494206183000,
            "actionkey": "GET",
            "logContent": "13759498504于Mon May 08 09:16:23 CST 2017操作了方法",
            "controllerkey": "/role",
            "userId": 1,
            "logIp": "10.1.180.145",
            "params": null
          },
          {
            "logId": 4,
            "logAddtime": 1494206207000,
            "actionkey": "GET",
            "logContent": "13759498504于Mon May 08 09:16:47 CST 2017操作了方法",
            "controllerkey": "/authority",
            "userId": 1,
            "logIp": "10.1.180.145",
            "params": null
          },
          {
            "logId": 5,
            "logAddtime": 1494206891000,
            "actionkey": "POST",
            "logContent": "13759498504于Mon May 08 09:28:11 CST 2017操作了方法",
            "controllerkey": "/authority",
            "userId": 1,
            "logIp": "10.1.180.145",
            "params": null
          },
          {
            "logId": 6,
            "logAddtime": 1494207011000,
            "actionkey": "POST",
            "logContent": "13759498504于Mon May 08 09:30:11 CST 2017操作了方法",
            "controllerkey": "/authority",
            "userId": 1,
            "logIp": "10.1.180.145",
            "params": null
          },
          {
            "logId": 7,
            "logAddtime": 1494207836000,
            "actionkey": "POST",
            "logContent": "13759498504于Mon May 08 09:43:56 CST 2017操作了方法",
            "controllerkey": "/authority",
            "userId": 1,
            "logIp": "10.1.180.145",
            "params": null
          },
          {
            "logId": 8,
            "logAddtime": 1494208048000,
            "actionkey": "POST",
            "logContent": "13759498504于Mon May 08 09:47:28 CST 2017操作了方法",
            "controllerkey": "/authority",
            "userId": 1,
            "logIp": "10.1.180.145",
            "params": null
          },
          {
            "logId": 9,
            "logAddtime": 1494208413000,
            "actionkey": "POST",
            "logContent": "13759498504于Mon May 08 09:53:33 CST 2017操作了方法",
            "controllerkey": "/authority",
            "userId": 1,
            "logIp": "10.1.180.145",
            "params": null
          },
          {
            "logId": 11,
            "logAddtime": 1494208681000,
            "actionkey": "POST",
            "logContent": "13759498504于Mon May 08 09:58:01 CST 2017操作了方法",
            "controllerkey": "/authority",
            "userId": 1,
            "logIp": "10.1.180.145",
            "params": null
          }
        ],
        "firstPage": 1,
        "prePage": 0,
        "nextPage": 2,
        "lastPage": 7,
        "isFirstPage": true,
        "isLastPage": false,
        "hasPreviousPage": false,
        "hasNextPage": true,
        "navigatePages": 8,
        "navigatepageNums": [
          1,
          2,
          3,
          4,
          5,
          6,
          7
        ]
      }
    }
  },
  "dish": {
    "id": 1,
    "code": 1,
    "msg": "后端正常",
    "data": {
      "page": {
        "pageNum": 1,
        "pageSize": 10,
        "size": 10,
        "orderBy": "dishtype_id asc",
        "startRow": 1,
        "endRow": 10,
        "total": 4,
        "pages": 1,
        "list": [
          {
            "dishId": 1,
            "dishName": "麻婆豆腐",
            "dishDesc": "家常菜",
            "isShow": 0,
            "addTime": 1494391398000,
            "parentId": null
          },
          {
            "dishId": 2,
            "dishName": "青椒土豆丝",
            "dishDesc": "家常菜",
            "isShow": 0,
            "addTime": 1494391398000,
            "parentId": null
          },
          {
            "dishId": 3,
            "dishName": "灯影牛肉",
            "dishDesc": "特色菜",
            "isShow": 0,
            "addTime": 1494391398000,
            "parentId": null
          },
          {
            "dishId": 4,
            "dishName": "重庆火锅",
            "dishDesc": "火锅",
            "isShow": 0,
            "addTime": 1494391398000,
            "parentId": null
          }
        ],
        "firstPage": 1,
        "prePage": 0,
        "nextPage": 0,
        "lastPage": 1,
        "isFirstPage": true,
        "isLastPage": false,
        "hasPreviousPage": false,
        "hasNextPage": true,
        "navigatePages": 1,
        "navigatepageNums": [
          1
        ]
      }
    }
  },
  "business": [
    {
      "id": 1,
      "code": 1,
      "msg": "后端正常",
      "data": [
        {
          "businessId": 1,
          "userId": 1,
          "name": "外婆味道",
          "address": "环城东路",
          "tel": 1888888888,
          "businessImage": null,
          "isShow": 0,
          "addTime": 1494391285000,
          "content": null
        }
      ]
    }
  ],
  "dishtype": {
    "id": 1,
    "code": 1,
    "msg": "后端正常",
    "data": {
      "page": {
        "pageNum": 1,
        "pageSize": 10,
        "size": 10,
        "orderBy": "dishtype_id asc",
        "startRow": 1,
        "endRow": 10,
        "total": 4,
        "pages": 1,
        "list": [
          {
            "dishtypeId": 1,
            "typeName": "家常菜",
            "dishId": 1,
            "isShow": 0,
            "addTime": 1494391398000,
            "parentId": null
          },
          {
            "dishtypeId": 2,
            "typeName": "特色菜",
            "dishId": 3,
            "isShow": 0,
            "addTime": 1494391398000,
            "parentId": null
          },
          {
            "dishtypeId": 3,
            "typeName": "超辣火锅",
            "dishId": 4,
            "isShow": 0,
            "addTime": 1494391398000,
            "parentId": null
          },
          {
            "dishtypeId": 4,
            "typeName": "西餐",
            "dishId": 5,
            "isShow": 0,
            "addTime": 1494391398000,
            "parentId": null
          }
        ],
        "firstPage": 1,
        "prePage": 0,
        "nextPage": 0,
        "lastPage": 1,
        "isFirstPage": true,
        "isLastPage": false,
        "hasPreviousPage": false,
        "hasNextPage": true,
        "navigatePages": 1,
        "navigatepageNums": [
          1
        ]
      }
    }
  },
  "nutrition": {
    "id": 1,
    "code": 1,
    "msg": "后端正常",
    "data": {
      "page": {
        "pageNum": 1,
        "pageSize": 10,
        "size": 10,
        "orderBy": "dishtype_id asc",
        "startRow": 1,
        "endRow": 10,
        "total": 4,
        "pages": 1,
        "list": [
          {
            "dishId": 1,
            "dishName": "麻婆豆腐",
            "dishDesc": "家常菜",
            "isShow": 0,
            "addTime": 1494391398000,
            "parentId": null
          },
          {
            "dishId": 2,
            "dishName": "青椒土豆丝",
            "dishDesc": "家常菜",
            "isShow": 0,
            "addTime": 1494391398000,
            "parentId": null
          },
          {
            "dishId": 3,
            "dishName": "灯影牛肉",
            "dishDesc": "特色菜",
            "isShow": 0,
            "addTime": 1494391398000,
            "parentId": null
          },
          {
            "dishId": 4,
            "dishName": "重庆火锅",
            "dishDesc": "火锅",
            "isShow": 0,
            "addTime": 1494391398000,
            "parentId": null
          }
        ],
        "firstPage": 1,
        "prePage": 0,
        "nextPage": 0,
        "lastPage": 1,
        "isFirstPage": true,
        "isLastPage": false,
        "hasPreviousPage": false,
        "hasNextPage": true,
        "navigatePages": 1,
        "navigatepageNums": [
          1
        ]
      }
    }
  },
  "role": {
    "roleName": "全局",
    "roleType": "1",
    "roleContent": ""
  },
  "tag": [
    {
      "id": 1,
      "code": 1,
      "msg": "后端正常",
      "data": [
        {
          "tagId": 1,
          "name": "微辣",
          "content": "有点微辣，刚刚好",
          "tagType": 1,
          "addTime": 1494391775000
        }
      ]
    }
  ],
  "dishtag": {
    "id": 1,
    "code": 1,
    "msg": "后端正常",
    "data": {
      "page": {
        "pageNum": 1,
        "pageSize": 10,
        "size": 10,
        "orderBy": "dish_id asc",
        "startRow": 1,
        "endRow": 10,
        "total": 4,
        "pages": 1,
        "list": [
          {
            "dishtagId": 1,
            "dishtagName": "微辣",
            "addTime": "13759498504于Sun May 07 14:21:10 CST 2017添加",
            "dishtagType": "辣",
            "params": null
          },
          {
            "dishtagId": 2,
            "dishtagName": "中辣",
            "addTime": "13759498504于Sun May 07 14:21:10 CST 2017添加",
            "dishtagType": "辣",
            "params": null
          },
          {
            "dishtagId": 3,
            "dishtagName": "特辣",
            "addTime": "13759498504于Sun May 07 14:21:10 CST 2017添加",
            "dishtagType": "辣",
            "params": null
          },
          {
            "dishtagId": 4,
            "dishtagName": "麻辣",
            "addTime": "13759498504于Sun May 07 14:21:10 CST 2017添加",
            "dishtagType": "辣",
            "params": null
          }
        ],
        "firstPage": 1,
        "prePage": 0,
        "nextPage": 0,
        "lastPage": 1,
        "isFirstPage": true,
        "isLastPage": false,
        "hasPreviousPage": false,
        "hasNextPage": true,
        "navigatePages": 1,
        "navigatepageNums": [
          1
        ]
      }
    }
  }
}
